R-gene count comparisons
…
pav_table <- read_tsv('./data/soybean_pan_pav.matrix_gene.txt.gz')

NBS part

Let’s pull the NBS genes from the table

nbs <- read_tsv('./data/Lee.NBS.candidates.lst', col_names = c('Name', 'Class'))
nbs

# A tibble: 486 x 2
   Name                   Class
   <chr>                  <chr>
 1 UWASoyPan00953.t1      CN   
 2 GlymaLee.13G222900.1.p CN   
 3 GlymaLee.18G227000.1.p CN   
 4 GlymaLee.18G080600.1.p CN   
 5 GlymaLee.20G036200.1.p CN   
 6 UWASoyPan01876.t1      CN   
 7 UWASoyPan04211.t1      CN   
 8 GlymaLee.19G105400.1.p CN   
 9 GlymaLee.18G085100.1.p CN   
10 GlymaLee.11G142600.1.p CN   
# ... with 476 more rows

# have to remove the .t1s 
nbs$Name <- gsub('.t1','', nbs$Name)

nbs_pav_table <- pav_table %>% filter(Individual %in% nbs$Name)
write_delim(nbs_pav_table, 'data/NBS_PAV.txt.gz', delim='\t')

Modern vs Old gene loss

groups <- read_csv('./data/Table_of_cultivar_groups.csv')
groups

# A tibble: 1,069 x 3
   `Data-storage-ID` `PI-ID`   `Group in violin table`
   <chr>             <chr>     <chr>                  
 1 SRR1533284        PI416890  landrace               
 2 SRR1533282        PI323576  landrace               
 3 SRR1533292        PI157421  landrace               
 4 SRR1533216        PI594615  landrace               
 5 SRR1533239        PI603336  landrace               
 6 USB-108           PI165675  landrace               
 7 HNEX-13           PI253665D landrace               
 8 USB-382           PI603549  landrace               
 9 SRR1533236        PI587552  landrace               
10 SRR1533332        PI567293  landrace               
# ... with 1,059 more rows
…
Modern cultivar
431
455
442.3147
442
4.047986

RLK part

Let’s do the same plot with RLKs

rlk <- read_tsv('./data/Lee.RLK.candidates.lst', col_names = c('Name', 'Class', 'Subtype'))
rlk

# A tibble: 1,173 x 3
   Name                   Class Subtype       
   <chr>                  <chr> <chr>         
 1 GlymaLee.01G001800.1.p RLK   lrr           
 2 GlymaLee.01G004900.1.p RLK   lrr           
 3 GlymaLee.01G007300.1.p RLK   lrr           
 4 GlymaLee.01G007400.1.p RLK   lrr           
 5 GlymaLee.01G012800.1.p RLK   other_receptor
 6 GlymaLee.01G018800.1.p RLK   lrr           
 7 GlymaLee.01G021100.1.p RLK   other_receptor
 8 GlymaLee.01G025500.1.p RLK   lysm          
 9 GlymaLee.01G026500.1.p RLK   other_receptor
10 GlymaLee.01G027000.1.p RLK   lrr           
# ... with 1,163 more rows

# have to remove the .t1s 
rlk$Name <- gsub('.t1','', rlk$Name)

rlk_pav_table <- pav_table %>% filter(Individual %in% rlk$Name)
rlk_pav_table

# A tibble: 1,173 x 1,111
   Individual `AB-01` `AB-02` `BR-01` `BR-02` `BR-03` `BR-04` `BR-05` `BR-06`
   <chr>        <dbl>   <dbl>   <dbl>   <dbl>   <dbl>   <dbl>   <dbl>   <dbl>
 1 GlymaLee.~       1       1       1       1       1       1       1       1
 2 GlymaLee.~       1       1       1       1       1       1       1       1
 3 GlymaLee.~       1       1       1       1       1       1       1       1
 4 GlymaLee.~       1       1       1       1       1       1       1       1
 5 GlymaLee.~       1       1       1       1       1       1       1       1
 6 GlymaLee.~       1       1       1       1       1       1       1       1
 7 GlymaLee.~       1       1       1       1       1       1       1       1
 8 GlymaLee.~       1       1       1       1       1       1       1       1
 9 GlymaLee.~       1       1       1       1       1       1       1       1
10 GlymaLee.~       1       1       1       1       1       1       1       1
# ... with 1,163 more rows, and 1,102 more variables: `BR-07` <dbl>,
#   `BR-08` <dbl>, `BR-09` <dbl>, `BR-10` <dbl>, `BR-11` <dbl>, `BR-12` <dbl>,
#   `BR-13` <dbl>, `BR-14` <dbl>, `BR-15` <dbl>, `BR-16` <dbl>, `BR-17` <dbl>,
#   `BR-18` <dbl>, `BR-20` <dbl>, `BR-23` <dbl>, `BR-24` <dbl>, `BR-29` <dbl>,
#   `BR-30` <dbl>, `BR-32` <dbl>, DT2000 <dbl>, ESS <dbl>, For <dbl>,
#   HN001 <dbl>, HN002 <dbl>, HN003 <dbl>, HN004 <dbl>, HN005 <dbl>,
#   HN006 <dbl>, HN007 <dbl>, HN008 <dbl>, HN009 <dbl>, HN010 <dbl>,
#   HN011 <dbl>, HN012 <dbl>, HN013 <dbl>, HN015 <dbl>, HN016B <dbl>,
#   HN017B <dbl>, HN018 <dbl>, HN019 <dbl>, HN021 <dbl>, HN022 <dbl>,
…
names <- c()
presences <- c()

for (i in seq_along(rlk_pav_table)){
  if ( i == 1) next
  thisind <- colnames(rlk_pav_table)[i]
  pavs <- rlk_pav_table[[i]]
  presents <- sum(pavs)
  names <- c(names, thisind)
  presences <- c(presences, presents)
}
rlk_res_tibb <- new_tibble(list(names = names, presences = presences))
rlk_res_tibb

# A tibble: 1,110 x 2
   names presences
   <chr>     <dbl>
 1 AB-01      1167
 2 AB-02      1162
 3 BR-01      1166
 4 BR-02      1165
 5 BR-03      1166
 6 BR-04      1167
 7 BR-05      1164
 8 BR-06      1167
 9 BR-07      1165
10 BR-08      1167
# ... with 1,100 more rows
…
