Linking yield with NLR PAV
…
Data loading

npg_col = pal_npg("nrc")(9)
col_list <- c(`Wild`=npg_col[8],
   Landrace = npg_col[3],
  `Old cultivar`=npg_col[2],
  `Modern cultivar`=npg_col[4])

pav_table <- read_tsv('./data/soybean_pan_pav.matrix_gene.txt.gz')

nbs <- read_tsv('./data/Lee.NBS.candidates.lst', col_names = c('Name', 'Class'))
nbs

# A tibble: 486 x 2
   Name                   Class
   <chr>                  <chr>
 1 UWASoyPan00953.t1      CN   
 2 GlymaLee.13G222900.1.p CN   
 3 GlymaLee.18G227000.1.p CN   
 4 GlymaLee.18G080600.1.p CN   
 5 GlymaLee.20G036200.1.p CN   
 6 UWASoyPan01876.t1      CN   
 7 UWASoyPan04211.t1      CN   
 8 GlymaLee.19G105400.1.p CN   
 9 GlymaLee.18G085100.1.p CN   
10 GlymaLee.11G142600.1.p CN   
# ... with 476 more rows
…
Let’s look at seed weight:

seed_weight <- read_tsv('./data/Seed_weight_Phenotype.txt', col_names = c('names', 'wt'))
seed_join <- left_join(nbs_res_tibb, seed_weight) %>% filter(!is.na(wt))

Oil content

And now let’s look at the oil phenotype:

oil <- read_tsv('./data/oil_phenotype.txt')
oil_join <- left_join(nbs_res_tibb, oil, by=c('names'='Line')) %>% filter(!is.na(Oil))
oil_join

# A tibble: 962 x 3
   names presences   Oil
   <chr>     <dbl> <dbl>
 1 AB-01       445  17.6
 2 AB-02       454  16.8
 3 BR-24       455  20.6
 4 ESS         454  20.9
 5 For         448  21  
 6 HN001       448  23.6
 7 HN002       444  18.5
 8 HN003       446  17.5
 9 HN004       442  18.9
10 HN005       440  15.5
# ... with 952 more rows
…
Yield

yield_nbs_joined_groups <- nbs_joined_groups %>% inner_join(yield_join, by = 'names') 
yield_nbs_joined_groups$Yield2 <-scale(yield_nbs_joined_groups$Yield, center=T, scale=T)

yield_all_joined_groups <- all_joined_groups %>% inner_join(yield_join, by = 'names')

yield_country_nbs_joined_groups <- yield_nbs_joined_groups %>% inner_join(country)
yield_country_all_joined_groups <- yield_all_joined_groups %>% inner_join(country)
yield_country_nbs_joined_groups$Count <- yield_country_nbs_joined_groups$presences.y
yield_country_all_joined_groups$Count <- yield_country_all_joined_groups$presences.y

yield_country_all_joined_groups %>% count(Country)

# A tibble: 40 x 2
   Country       n
   <chr>     <int>
 1 Algeria       3
 2 Argentina     2
 3 Australia     1
 4 Austria       1
 5 Belgium       2
 6 Brazil        1
 7 Bulgaria      1
 8 Canada        5
 9 China       410
10 Costa         1
# ... with 30 more rows
…
# A tibble: 3 x 14
# Groups:   continent2 [3]
  continent2 data  models r.squared adj.r.squared sigma statistic p.value    df
  <chr>      <lis> <list>     <dbl>         <dbl> <dbl>     <dbl>   <dbl> <int>
1 Asia       <tib~ <lm>      0.0193        0.0142 0.754      3.80 1.02e-2     4
2 North Ame~ <tib~ <lm>      0.318         0.279  0.773      8.08 1.63e-4     4
3 Europe     <tib~ <lm>      0.107         0.0710 0.693      2.99 3.64e-2     4
# ... with 5 more variables: logLik <dbl>, AIC <dbl>, BIC <dbl>,
#   deviance <dbl>, df.residual <int>

Let’s pull out the data

with_models %>% filter(continent2 == 'Asia') %>% unnest(data)

# A tibble: 585 x 12
# Groups:   continent2 [1]
   continent2 names presences.x `PI-ID` Group presences.y Yield Yield2[,1]
   <chr>      <chr>       <dbl> <chr>   <fct>       <dbl> <dbl>      <dbl>
 1 Asia       AB-01         445 PI4580~ Land~         445  1.54    -0.774 
 2 Asia       AB-02         454 PI6037~ Land~         454  1.3     -1.06  
 3 Asia       HN005         440 PI4041~ Land~         440  2.15    -0.0366
 4 Asia       HN006         448 PI4077~ Land~         448  2.06    -0.145 
 5 Asia       HN007         442 PI4242~ Land~         442  1.64    -0.653 
 6 Asia       HN008         439 PI4376~ Land~         439  2.51     0.399 
 7 Asia       HN009         445 PI4950~ Land~         445  1.85    -0.399 
 8 Asia       HN010         447 PI4689~ Land~         447  2.8      0.749 
 9 Asia       HN011         441 PI5073~ Land~         441  1.49    -0.835 
10 Asia       HN012         443 PI5673~ Land~         443  1.86    -0.387 
# ... with 575 more rows, and 4 more variables: Country <chr>, Count <dbl>,
#   continent <chr>, models <list>
…
plots %>% unnest(data) %>% group_by(continent2) %>% 
  do(augment(.$models[[1]]))

# A tibble: 720 x 11
# Groups:   continent2 [3]
   continent2 Yield Count Group .fitted .se.fit  .resid    .hat .sigma .cooksd
   <chr>      <dbl> <dbl> <fct>   <dbl>   <dbl>   <dbl>   <dbl>  <dbl>   <dbl>
 1 Asia        1.54   445 Land~    2.03  0.0318 -0.493  0.00178  0.754 1.91e-4
 2 Asia        1.3    454 Land~    1.85  0.0654 -0.545  0.00752  0.754 9.99e-4
 3 Asia        2.15   440 Land~    2.14  0.0445  0.0131 0.00348  0.754 2.63e-7
 4 Asia        2.06   448 Land~    1.97  0.0372  0.0898 0.00244  0.754 8.68e-6
 5 Asia        1.64   442 Land~    2.10  0.0368 -0.455  0.00238  0.754 2.18e-4
 6 Asia        2.51   439 Land~    2.16  0.0491  0.352  0.00424  0.754 2.33e-4
 7 Asia        1.85   445 Land~    2.03  0.0318 -0.183  0.00178  0.754 2.62e-5
 8 Asia        2.8    447 Land~    1.99  0.0344  0.809  0.00208  0.754 6.01e-4
 9 Asia        1.49   441 Land~    2.12  0.0403 -0.626  0.00286  0.754 4.96e-4
10 Asia        1.86   443 Land~    2.07  0.0340 -0.214  0.00204  0.754 4.14e-5
# ... with 710 more rows, and 1 more variable: .std.resid <dbl>
…
