Linking yield with NLR PAV
…
Data loading

npg_col = pal_npg("nrc")(9)
col_list <- c(`Wild`=npg_col[8],
   Landrace = npg_col[3],
  `Old cultivar`=npg_col[2],
  `Modern cultivar`=npg_col[4])

pav_table <- read_tsv('./data/soybean_pan_pav.matrix_gene.txt.gz')

nbs <- read_tsv('./data/Lee.NBS.candidates.lst', col_names = c('Name', 'Class'))
nbs

# A tibble: 486 x 2
   Name                   Class
   <chr>                  <chr>
 1 UWASoyPan00953.t1      CN   
 2 GlymaLee.13G222900.1.p CN   
 3 GlymaLee.18G227000.1.p CN   
 4 GlymaLee.18G080600.1.p CN   
 5 GlymaLee.20G036200.1.p CN   
 6 UWASoyPan01876.t1      CN   
 7 UWASoyPan04211.t1      CN   
 8 GlymaLee.19G105400.1.p CN   
 9 GlymaLee.18G085100.1.p CN   
10 GlymaLee.11G142600.1.p CN   
# ... with 476 more rows
…
groups$Group <-
  factor(
    groups$Group,
    levels = c('Wild',
               'Landrace',
               'Old cultivar',
               'Modern cultivar')
  )
groups

# A tibble: 1,069 x 3
   `Data-storage-ID` `PI-ID`   Group   
   <chr>             <chr>     <fct>   
 1 SRR1533284        PI416890  Landrace
 2 SRR1533282        PI323576  Landrace
 3 SRR1533292        PI157421  Landrace
 4 SRR1533216        PI594615  Landrace
 5 SRR1533239        PI603336  Landrace
 6 USB-108           PI165675  Landrace
 7 HNEX-13           PI253665D Landrace
 8 USB-382           PI603549  Landrace
 9 SRR1533236        PI587552  Landrace
10 SRR1533332        PI567293  Landrace
# ... with 1,059 more rows
…
Residual standard error: 4.714 on 690 degrees of freedom
Multiple R-squared:  0.0398,    Adjusted R-squared:  0.0384 
F-statistic:  28.6 on 1 and 690 DF,  p-value: 1.213e-07

Oil content

And now let’s look at the oil phenotype:

oil <- read_tsv('./data/oil_phenotype.txt')
oil_join <- left_join(nbs_res_tibb, oil, by=c('names'='Line')) %>% filter(!is.na(Oil))
oil_join

# A tibble: 962 x 3
   names presences   Oil
   <chr>     <dbl> <dbl>
 1 AB-01       445  17.6
 2 AB-02       454  16.8
 3 BR-24       455  20.6
 4 ESS         454  20.9
 5 For         448  21  
 6 HN001       448  23.6
 7 HN002       444  18.5
 8 HN003       446  17.5
 9 HN004       442  18.9
10 HN005       440  15.5
# ... with 952 more rows
…
detach("package:lmerTest", unload=TRUE)

yield_country_nbs_joined_groups_renamed <- yield_country_nbs_joined_groups
names(yield_country_nbs_joined_groups_renamed) <- c('names', 'Count', 'PI-ID', 'Group', 'presences2.x', 'presences.y', 'Yield', 'Yield2.x', 'Country')
mixed.lmer <- lmer(Yield ~ `Count` + Group + (1|Country), data=yield_country_nbs_joined_groups_renamed)
yield_country_nbs_joined_groups_renamed

# A tibble: 741 x 9
   names Count `PI-ID` Group presences2.x[,1] presences.y Yield Yield2.x[,1]
   <chr> <dbl> <chr>   <fct>            <dbl>       <dbl> <dbl>        <dbl>
 1 AB-01   445 PI4580~ Land~           -0.119         445  1.54      -0.774 
 2 AB-02   454 PI6037~ Land~            1.35          454  1.3       -1.06  
 3 For     448 PI5486~ Mode~            0.371         448  3.34       1.40  
 4 HN001   448 PI5186~ Mode~            0.371         448  3.54       1.64  
 5 HN005   440 PI4041~ Land~           -0.935         440  2.15      -0.0366
 6 HN006   448 PI4077~ Land~            0.371         448  2.06      -0.145 
 7 HN007   442 PI4242~ Land~           -0.609         442  1.64      -0.653 
 8 HN008   439 PI4376~ Land~           -1.10          439  2.51       0.399 
 9 HN009   445 PI4950~ Land~           -0.119         445  1.85      -0.399 
10 HN010   447 PI4689~ Land~            0.207         447  2.8        0.749 
# ... with 731 more rows, and 1 more variable: Country <chr>
…
